%YAML 1.1
%TAG !u! tag:unity3d.com,2011:
--- !u!221 &22100000
AnimatorOverrideController:
  m_ObjectHideFlags: 0
  m_CorrespondingSourceObject: {fileID: 0}
  m_PrefabInstance: {fileID: 0}
  m_PrefabAsset: {fileID: 0}
  m_Name: StandPet8Animator
  m_Controller: {fileID: 9100000, guid: 549e53de22af4834a991529fec576298, type: 2}
  m_Clips:
  - m_OriginalClip: {fileID: 7400000, guid: f7f1c021516202f469ccde3e8f152dff, type: 2}
    m_OverrideClip: {fileID: 7400000, guid: d029c8c2cc0857b45adcca4c41fd3e20, type: 2}
  - m_OriginalClip: {fileID: 7400000, guid: 69c6ece5c49299e4db01201841e31560, type: 2}
    m_OverrideClip: {fileID: 7400000, guid: d029c8c2cc0857b45adcca4c41fd3e20, type: 2}
