%YAML 1.1
%TAG !u! tag:unity3d.com,2011:
--- !u!221 &22100000
AnimatorOverrideController:
  m_ObjectHideFlags: 0
  m_CorrespondingSourceObject: {fileID: 0}
  m_PrefabInstance: {fileID: 0}
  m_PrefabAsset: {fileID: 0}
  m_Name: Coin1Animator
  m_Controller: {fileID: 9100000, guid: 0e5bdf4f0d499184b9cd2928939036f0, type: 2}
  m_Clips:
  - m_OriginalClip: {fileID: 7400000, guid: 499ab9b4129ccf740b08372bbdef549c, type: 2}
    m_OverrideClip: {fileID: 7400000, guid: bf8410bf940952349be994069a6632a5, type: 2}
  - m_OriginalClip: {fileID: 7400000, guid: 9f9e8485dd4ba044db3c2c02f0b239dd, type: 2}
    m_OverrideClip: {fileID: 7400000, guid: 9f9e8485dd4ba044db3c2c02f0b239dd, type: 2}
