%YAML 1.1
%TAG !u! tag:unity3d.com,2011:
--- !u!74 &7400000
AnimationClip:
  m_ObjectHideFlags: 0
  m_CorrespondingSourceObject: {fileID: 0}
  m_PrefabInstance: {fileID: 0}
  m_PrefabAsset: {fileID: 0}
  m_Name: Coin0Default
  serializedVersion: 6
  m_Legacy: 0
  m_Compressed: 0
  m_UseHighQualityCurve: 1
  m_RotationCurves: []
  m_CompressedRotationCurves: []
  m_EulerCurves: []
  m_PositionCurves: []
  m_ScaleCurves: []
  m_FloatCurves: []
  m_PPtrCurves:
  - curve:
    - time: 0
      value: {fileID: 21300000, guid: 98cfe98655080fa4db23873046a6d36c, type: 3}
    - time: 0.083333336
      value: {fileID: 21300000, guid: 5d0990e072bfdfb40a5f7a28c3c28fd0, type: 3}
    - time: 0.16666667
      value: {fileID: 21300000, guid: cec3fee6c06a3ec44ad7184a02a1c9a1, type: 3}
    - time: 0.25
      value: {fileID: 21300000, guid: 05b5fb67c54bf78499afd1b301ab5ad6, type: 3}
    - time: 0.33333334
      value: {fileID: 21300000, guid: edb1ebea552e1124d9d1d541c36405b0, type: 3}
    - time: 0.41666666
      value: {fileID: 21300000, guid: 90f596ca46f272f468751d4e9c9c280a, type: 3}
    - time: 0.5
      value: {fileID: 21300000, guid: 20e5053b1c6be004cb629fb9cbaa5d33, type: 3}
    - time: 0.5833333
      value: {fileID: 21300000, guid: ccac37ceadcaa7440baffd7911e06cd6, type: 3}
    - time: 0.6666667
      value: {fileID: 21300000, guid: 38ecddf8edb037240812fcf835b3ba42, type: 3}
    - time: 0.75
      value: {fileID: 21300000, guid: 98cfe98655080fa4db23873046a6d36c, type: 3}
    attribute: m_Sprite
    path: 
    classID: 212
    script: {fileID: 0}
  m_SampleRate: 60
  m_WrapMode: 0
  m_Bounds:
    m_Center: {x: 0, y: 0, z: 0}
    m_Extent: {x: 0, y: 0, z: 0}
  m_ClipBindingConstant:
    genericBindings:
    - serializedVersion: 2
      path: 0
      attribute: 0
      script: {fileID: 0}
      typeID: 212
      customType: 23
      isPPtrCurve: 1
    pptrCurveMapping:
    - {fileID: 21300000, guid: 98cfe98655080fa4db23873046a6d36c, type: 3}
    - {fileID: 21300000, guid: 5d0990e072bfdfb40a5f7a28c3c28fd0, type: 3}
    - {fileID: 21300000, guid: cec3fee6c06a3ec44ad7184a02a1c9a1, type: 3}
    - {fileID: 21300000, guid: 05b5fb67c54bf78499afd1b301ab5ad6, type: 3}
    - {fileID: 21300000, guid: edb1ebea552e1124d9d1d541c36405b0, type: 3}
    - {fileID: 21300000, guid: 90f596ca46f272f468751d4e9c9c280a, type: 3}
    - {fileID: 21300000, guid: 20e5053b1c6be004cb629fb9cbaa5d33, type: 3}
    - {fileID: 21300000, guid: ccac37ceadcaa7440baffd7911e06cd6, type: 3}
    - {fileID: 21300000, guid: 38ecddf8edb037240812fcf835b3ba42, type: 3}
    - {fileID: 21300000, guid: 98cfe98655080fa4db23873046a6d36c, type: 3}
  m_AnimationClipSettings:
    serializedVersion: 2
    m_AdditiveReferencePoseClip: {fileID: 0}
    m_AdditiveReferencePoseTime: 0
    m_StartTime: 0
    m_StopTime: 0.76666665
    m_OrientationOffsetY: 0
    m_Level: 0
    m_CycleOffset: 0
    m_HasAdditiveReferencePose: 0
    m_LoopTime: 1
    m_LoopBlend: 0
    m_LoopBlendOrientation: 0
    m_LoopBlendPositionY: 0
    m_LoopBlendPositionXZ: 0
    m_KeepOriginalOrientation: 0
    m_KeepOriginalPositionY: 1
    m_KeepOriginalPositionXZ: 0
    m_HeightFromFeet: 0
    m_Mirror: 0
  m_EditorCurves: []
  m_EulerEditorCurves: []
  m_HasGenericRootTransform: 0
  m_HasMotionFloatCurves: 0
  m_Events: []
