%YAML 1.1
%TAG !u! tag:unity3d.com,2011:
--- !u!221 &22100000
AnimatorOverrideController:
  m_ObjectHideFlags: 0
  m_CorrespondingSourceObject: {fileID: 0}
  m_PrefabInstance: {fileID: 0}
  m_PrefabAsset: {fileID: 0}
  m_Name: Pet15Animator
  m_Controller: {fileID: 9100000, guid: 4b3c85414c838124aac2effccfd65854, type: 2}
  m_Clips:
  - m_OriginalClip: {fileID: 7400000, guid: 6a768e028cd2ef045917c8fdd8da299b, type: 2}
    m_OverrideClip: {fileID: 7400000, guid: 17c65ba7b70540f47b1e8ad2d5062b82, type: 2}
  - m_OriginalClip: {fileID: 7400000, guid: 50bc796a7875f5f4c9a8c6a0c55b3b44, type: 2}
    m_OverrideClip: {fileID: 7400000, guid: e3125249595f32e44bff23dd8a943b23, type: 2}
  - m_OriginalClip: {fileID: 7400000, guid: d5b0a76258c26974787b3bff3943e262, type: 2}
    m_OverrideClip: {fileID: 7400000, guid: c17868df2930daf47bcb6bcb2310df03, type: 2}
  - m_OriginalClip: {fileID: 7400000, guid: b8395115db604a946af4ddb23720b733, type: 2}
    m_OverrideClip: {fileID: 7400000, guid: b8395115db604a946af4ddb23720b733, type: 2}
  - m_OriginalClip: {fileID: 7400000, guid: 0d598fa199543ba4bb6cc4919d5d1938, type: 2}
    m_OverrideClip: {fileID: 7400000, guid: f2e68ccfd1436fa4a86f3adee8e0f210, type: 2}
