%YAML 1.1
%TAG !u! tag:unity3d.com,2011:
--- !u!221 &22100000
AnimatorOverrideController:
  m_ObjectHideFlags: 0
  m_CorrespondingSourceObject: {fileID: 0}
  m_PrefabInstance: {fileID: 0}
  m_PrefabAsset: {fileID: 0}
  m_Name: Pet7Animator
  m_Controller: {fileID: 9100000, guid: 4b3c85414c838124aac2effccfd65854, type: 2}
  m_Clips:
  - m_OriginalClip: {fileID: 7400000, guid: 6a768e028cd2ef045917c8fdd8da299b, type: 2}
    m_OverrideClip: {fileID: 7400000, guid: 44caba5a8dce9f442b91205d4cad30fe, type: 2}
  - m_OriginalClip: {fileID: 7400000, guid: 50bc796a7875f5f4c9a8c6a0c55b3b44, type: 2}
    m_OverrideClip: {fileID: 7400000, guid: 0a3d7a9ec28e7c148b6330c39bfd898c, type: 2}
  - m_OriginalClip: {fileID: 7400000, guid: d5b0a76258c26974787b3bff3943e262, type: 2}
    m_OverrideClip: {fileID: 7400000, guid: 4588546e9a51ea14db65386b39e8a0d9, type: 2}
  - m_OriginalClip: {fileID: 7400000, guid: b8395115db604a946af4ddb23720b733, type: 2}
    m_OverrideClip: {fileID: 7400000, guid: b8395115db604a946af4ddb23720b733, type: 2}
  - m_OriginalClip: {fileID: 7400000, guid: 0d598fa199543ba4bb6cc4919d5d1938, type: 2}
    m_OverrideClip: {fileID: 7400000, guid: dffc86c18fe369247ba32317e4b08e54, type: 2}
