%YAML 1.1
%TAG !u! tag:unity3d.com,2011:
--- !u!687078895 &4343727234628468602
SpriteAtlas:
  m_ObjectHideFlags: 0
  m_CorrespondingSourceObject: {fileID: 0}
  m_PrefabInstance: {fileID: 0}
  m_PrefabAsset: {fileID: 0}
  m_Name: bullet
  m_EditorData:
    serializedVersion: 2
    textureSettings:
      serializedVersion: 2
      anisoLevel: 1
      compressionQuality: 50
      maxTextureSize: 2048
      textureCompression: 0
      filterMode: 0
      generateMipMaps: 0
      readable: 0
      crunchedCompression: 0
      sRGB: 1
    platformSettings:
    - serializedVersion: 2
      m_BuildTarget: DefaultTexturePlatform
      m_MaxTextureSize: 128
      m_ResizeAlgorithm: 0
      m_TextureFormat: -1
      m_TextureCompression: 2
      m_CompressionQuality: 50
      m_CrunchedCompression: 0
      m_AllowsAlphaSplitting: 0
      m_Overridden: 0
      m_AndroidETC2FallbackOverride: 0
    packingSettings:
      serializedVersion: 2
      padding: 4
      blockOffset: 1
      allowAlphaSplitting: 0
      enableRotation: 1
      enableTightPacking: 0
    variantMultiplier: 1
    packables:
    - {fileID: 102900000, guid: 5d214803b447c6a45b3b5d2d818362ec, type: 3}
    totalSpriteSurfaceArea: 7573
    bindAsDefault: 1
  m_MasterAtlas: {fileID: 0}
  m_PackedSprites:
  - {fileID: 21300000, guid: 953d8b109ab934a46931eec8b51a42fa, type: 3}
  - {fileID: 21300000, guid: a450ce2189ee22f47a9e826be5450787, type: 3}
  - {fileID: 21300000, guid: 73021202d6995e541b9229cb70ca5ad3, type: 3}
  - {fileID: 21300000, guid: 7409a45269f25374cbd1d038f7cba14b, type: 3}
  - {fileID: 21300000, guid: c6b3c7f265527d94e8280afe16a2b0b6, type: 3}
  - {fileID: 21300000, guid: 3521ad33dd3a8fc47a509d4d6b32f939, type: 3}
  - {fileID: 21300000, guid: 88e91f442e68f664b87263a6d9df98b5, type: 3}
  - {fileID: 21300000, guid: ec4e2145f9f933946bf5229c36b7b042, type: 3}
  - {fileID: 21300000, guid: 4badc955a93769843a4a0707aabbca8f, type: 3}
  - {fileID: 21300000, guid: d78922c576864cb4d9f184bbfeacf7f6, type: 3}
  - {fileID: 21300000, guid: 98b2a776deda9ec44a58f8141c8f39e6, type: 3}
  - {fileID: 21300000, guid: fd5a67a62e52e1243b93e80c748caaa4, type: 3}
  - {fileID: 21300000, guid: 9cbee2472e0a4ed49bd90df46eb8183c, type: 3}
  - {fileID: 21300000, guid: c3155b1813a011a408608a3ec662fb3e, type: 3}
  - {fileID: 21300000, guid: 7d344c2899e32ce45b7ac3ead792087c, type: 3}
  - {fileID: 21300000, guid: f38e4e888fbc9d642b1a07d492c9e4a4, type: 3}
  - {fileID: 21300000, guid: bb1297b862413ab418e33a1df4581f2a, type: 3}
  - {fileID: 21300000, guid: 630a67d95f7cc1e43a5f1ab02b21707a, type: 3}
  - {fileID: 21300000, guid: 8054ec2aeace236479a9704212ff11b1, type: 3}
  - {fileID: 21300000, guid: b1b9058a8fa0c814ab6393dfb397d7f9, type: 3}
  - {fileID: 21300000, guid: 07938a9aed9a7da419be685ee5dcdc5d, type: 3}
  - {fileID: 21300000, guid: 66170fda307a91440aeea14963c49570, type: 3}
  - {fileID: 21300000, guid: 6f0cb50b51d3dda4caf983c2f7b3587d, type: 3}
  - {fileID: 21300000, guid: aa3c312bd5cda1348b8dc5f44cfdc081, type: 3}
  - {fileID: 21300000, guid: 4c1cbafc138981e459e14d9a69bd30f2, type: 3}
  - {fileID: 21300000, guid: f9afda6d47c58e94f933d03fd2bd1549, type: 3}
  - {fileID: 21300000, guid: 6e3b807d0221567438b9c71841c00d2b, type: 3}
  - {fileID: 21300000, guid: 6c62757d79c6794449dc94ab58ee2eb1, type: 3}
  - {fileID: 21300000, guid: 899167cd410661448b77c32d49dcaeb4, type: 3}
  - {fileID: 21300000, guid: 9ef4064e6981a9d448684d5cec9b0359, type: 3}
  - {fileID: 21300000, guid: 711f7beeaa1d74a4e9c8c685c8ecbb39, type: 3}
  - {fileID: 21300000, guid: 34b2000f478837f4ab8b193cfcc6afba, type: 3}
  - {fileID: 21300000, guid: 994ed37f8afeeae4187c180daed099be, type: 3}
  m_PackedSpriteNamesToIndex:
  - 17_0
  - 17_1
  - 11_1
  - 16_0
  - 4_0
  - 19_0
  - 8_1
  - 12_0
  - 10_0
  - 14_0
  - 7_0
  - 15_0
  - 3_0
  - 5_0
  - 2_1
  - 10_1
  - 7_1
  - 2_0
  - 5_1
  - 9_0
  - 18_1
  - 9_1
  - 3_1
  - 1_1
  - 0_0
  - 11_0
  - 18_0
  - 6_0
  - 0_1
  - 6_1
  - 1_0
  - 13_0
  - 8_0
  m_Tag: bullet
  m_IsVariant: 0
