%YAML 1.1
%TAG !u! tag:unity3d.com,2011:
--- !u!687078895 &4343727234628468602
SpriteAtlas:
  m_ObjectHideFlags: 0
  m_CorrespondingSourceObject: {fileID: 0}
  m_PrefabInstance: {fileID: 0}
  m_PrefabAsset: {fileID: 0}
  m_Name: standpet
  m_EditorData:
    serializedVersion: 2
    textureSettings:
      serializedVersion: 2
      anisoLevel: 1
      compressionQuality: 50
      maxTextureSize: 2048
      textureCompression: 0
      filterMode: 0
      generateMipMaps: 0
      readable: 0
      crunchedCompression: 0
      sRGB: 1
    platformSettings:
    - serializedVersion: 2
      m_BuildTarget: DefaultTexturePlatform
      m_MaxTextureSize: 256
      m_ResizeAlgorithm: 0
      m_TextureFormat: -1
      m_TextureCompression: 0
      m_CompressionQuality: 50
      m_CrunchedCompression: 0
      m_AllowsAlphaSplitting: 0
      m_Overridden: 0
      m_AndroidETC2FallbackOverride: 0
    packingSettings:
      serializedVersion: 2
      padding: 4
      blockOffset: 1
      allowAlphaSplitting: 0
      enableRotation: 1
      enableTightPacking: 0
    variantMultiplier: 1
    packables:
    - {fileID: 102900000, guid: 2acb5853ef828b546bd33258f47ed0e8, type: 3}
    totalSpriteSurfaceArea: 20480
    bindAsDefault: 1
  m_MasterAtlas: {fileID: 0}
  m_PackedSprites:
  - {fileID: 21300000, guid: 62521b012f03b20408f76a3f8ddffbd2, type: 3}
  - {fileID: 21300000, guid: 8e293681534e1a54598c5ec3ae6a52d8, type: 3}
  - {fileID: 21300000, guid: 68283c9175f70384cb6eb04d5352fc22, type: 3}
  - {fileID: 21300000, guid: 16dcf4e15bbc3664d877ec510eac3c1d, type: 3}
  - {fileID: 21300000, guid: f3b819e2623101941a2f283d0e1d32e3, type: 3}
  - {fileID: 21300000, guid: d2d1fbc34ea41e345b566e0ddf7e469c, type: 3}
  - {fileID: 21300000, guid: 9012d3044b7f79a4ab0f016477510428, type: 3}
  - {fileID: 21300000, guid: 7e3b06846fb238945afee3a6136b4db1, type: 3}
  - {fileID: 21300000, guid: ee83d005493422144869385b3eb3661c, type: 3}
  - {fileID: 21300000, guid: cb4edb26d342d2e468628d3934434565, type: 3}
  - {fileID: 21300000, guid: 5f32c03663f1ff04ab92fc5890fce991, type: 3}
  - {fileID: 21300000, guid: bfb8a259b265685458787a34f7f7ee20, type: 3}
  - {fileID: 21300000, guid: b35a4cf9a9b026545b2a2874009ba917, type: 3}
  - {fileID: 21300000, guid: 8c58be6b68568de4a956e07e40e95159, type: 3}
  - {fileID: 21300000, guid: eabbc22c66c824746968f1d7432314c9, type: 3}
  - {fileID: 21300000, guid: 20f7ca8ca2f67cf4288723cf0cefb958, type: 3}
  - {fileID: 21300000, guid: d34b7cfd5c7db3445857e755ecf2c1ab, type: 3}
  - {fileID: 21300000, guid: 7afc6c0e25953bf41bbfeb03353864ae, type: 3}
  - {fileID: 21300000, guid: e3593e2e6ce109f4e86de60490981aef, type: 3}
  - {fileID: 21300000, guid: c60742ce86bd8424893bd06c2eaca2b4, type: 3}
  m_PackedSpriteNamesToIndex:
  - 6
  - 2
  - 7
  - 18
  - 15
  - 9
  - 14
  - 11
  - 17
  - 19
  - 3
  - 10
  - 1
  - 5
  - 16
  - 8
  - 13
  - 12
  - 4
  - 0
  m_Tag: standpet
  m_IsVariant: 0
