%YAML 1.1
%TAG !u! tag:unity3d.com,2011:
--- !u!221 &22100000
AnimatorOverrideController:
  m_ObjectHideFlags: 0
  m_CorrespondingSourceObject: {fileID: 0}
  m_PrefabInstance: {fileID: 0}
  m_PrefabAsset: {fileID: 0}
  m_Name: GMonster1Animator
  m_Controller: {fileID: 9100000, guid: 442c483fb42b39341887579751446290, type: 2}
  m_Clips:
  - m_OriginalClip: {fileID: 7400000, guid: 4ddf3ad4e529e0c45a0aa5461770be1f, type: 2}
    m_OverrideClip: {fileID: 7400000, guid: a518dde0f78fdfc4baa97a9e270665d0, type: 2}
  - m_OriginalClip: {fileID: 7400000, guid: 95b33b6d6bc05da4fae17cc90f87a327, type: 2}
    m_OverrideClip: {fileID: 7400000, guid: 95b33b6d6bc05da4fae17cc90f87a327, type: 2}
