%YAML 1.1
%TAG !u! tag:unity3d.com,2011:
--- !u!687078895 &4343727234628468602
SpriteAtlas:
  m_ObjectHideFlags: 0
  m_CorrespondingSourceObject: {fileID: 0}
  m_PrefabInstance: {fileID: 0}
  m_PrefabAsset: {fileID: 0}
  m_Name: ui
  m_EditorData:
    serializedVersion: 2
    textureSettings:
      serializedVersion: 2
      anisoLevel: 1
      compressionQuality: 50
      maxTextureSize: 2048
      textureCompression: 0
      filterMode: 1
      generateMipMaps: 0
      readable: 0
      crunchedCompression: 0
      sRGB: 1
    platformSettings: []
    packingSettings:
      serializedVersion: 2
      padding: 4
      blockOffset: 1
      allowAlphaSplitting: 0
      enableRotation: 0
      enableTightPacking: 0
    variantMultiplier: 1
    packables:
    - {fileID: 2800000, guid: 0cf2ea97ec690d34dbcae428d9863bee, type: 3}
    - {fileID: 2800000, guid: a0b156d4806400246814a41336ba7697, type: 3}
    - {fileID: 2800000, guid: 6ff7a8d1cc44c5d4eafd954f9b157e57, type: 3}
    totalSpriteSurfaceArea: 195987
    bindAsDefault: 1
  m_MasterAtlas: {fileID: 0}
  m_PackedSprites:
  - {fileID: 21300024, guid: 6ff7a8d1cc44c5d4eafd954f9b157e57, type: 3}
  - {fileID: 21300026, guid: 6ff7a8d1cc44c5d4eafd954f9b157e57, type: 3}
  - {fileID: 21300000, guid: 6ff7a8d1cc44c5d4eafd954f9b157e57, type: 3}
  - {fileID: 21300006, guid: 6ff7a8d1cc44c5d4eafd954f9b157e57, type: 3}
  - {fileID: 21300010, guid: 6ff7a8d1cc44c5d4eafd954f9b157e57, type: 3}
  - {fileID: 21300012, guid: 6ff7a8d1cc44c5d4eafd954f9b157e57, type: 3}
  - {fileID: 21300022, guid: 6ff7a8d1cc44c5d4eafd954f9b157e57, type: 3}
  - {fileID: 21300002, guid: a0b156d4806400246814a41336ba7697, type: 3}
  - {fileID: 21300004, guid: a0b156d4806400246814a41336ba7697, type: 3}
  - {fileID: 21300000, guid: a0b156d4806400246814a41336ba7697, type: 3}
  - {fileID: 21300012, guid: a0b156d4806400246814a41336ba7697, type: 3}
  - {fileID: 21300008, guid: a0b156d4806400246814a41336ba7697, type: 3}
  - {fileID: 21300006, guid: a0b156d4806400246814a41336ba7697, type: 3}
  - {fileID: 21300000, guid: 0cf2ea97ec690d34dbcae428d9863bee, type: 3}
  m_PackedSpriteNamesToIndex:
  - arrow
  - want
  - moneycard
  - newmark
  - inbar
  - bar
  - null
  - stardefault
  - yellowstar
  - popup
  - line
  - spot
  - back
  - money
  m_Tag: ui
  m_IsVariant: 0
